{
    "aliases": {
        "retool":"node_modules/@retool/retool/assets",
        "slds":"node_modules/@salesforce-ux/design-system/assets"
    },
    "include": {
        "lightning":"node_modules/@retool/lightning-components"
    }
}